%YAML 1.1
%TAG !u! tag:unity3d.com,2011:
--- !u!74 &7400000
AnimationClip:
  m_ObjectHideFlags: 0
  m_PrefabParentObject: {fileID: 0}
  m_PrefabInternal: {fileID: 0}
  m_Name: Teddy Heavy Attack
  serializedVersion: 6
  m_Legacy: 0
  m_Compressed: 0
  m_UseHighQualityCurve: 1
  m_RotationCurves: []
  m_CompressedRotationCurves: []
  m_EulerCurves: []
  m_PositionCurves: []
  m_ScaleCurves: []
  m_FloatCurves: []
  m_PPtrCurves:
  - curve:
    - time: 0
      value: {fileID: 21300000, guid: 2360a996da61f564d94515d10de8e70f, type: 3}
    - time: 0.016666668
      value: {fileID: 21300000, guid: 155fe37a30d03214e945b27a08a20494, type: 3}
    - time: 0.033333335
      value: {fileID: 21300000, guid: 8bde64b7fdf7f884d9ae7714db9f2bd2, type: 3}
    - time: 0.05
      value: {fileID: 21300000, guid: a733d62e085c5c446b41196db230dfbd, type: 3}
    - time: 0.06666667
      value: {fileID: 21300000, guid: e493110eae9ba9f47bc1bdc003a0fd48, type: 3}
    - time: 0.083333336
      value: {fileID: 21300000, guid: 821287f2689d7254ca47ade21735d98b, type: 3}
    - time: 0.1
      value: {fileID: 21300000, guid: 863256cbac36f2249aaec276bc848802, type: 3}
    - time: 0.11666667
      value: {fileID: 21300000, guid: cdcc3309f220b3146b035fb90e3955be, type: 3}
    - time: 0.13333334
      value: {fileID: 21300000, guid: 534b12320ba7fca44bc2091aebcc3c32, type: 3}
    - time: 0.15
      value: {fileID: 21300000, guid: 39dc319a98e375847acb3a69b3d41e42, type: 3}
    - time: 0.16666667
      value: {fileID: 21300000, guid: 67d5cb7f2ee398645842eecad22ea024, type: 3}
    - time: 0.18333334
      value: {fileID: 21300000, guid: 29561f962a8ff2b448fd27098ee72240, type: 3}
    - time: 0.2
      value: {fileID: 21300000, guid: 585a82548a85f8846848811f84b5812c, type: 3}
    - time: 0.21666667
      value: {fileID: 21300000, guid: 1d715c516a6aea84aac0b05cd4b28cac, type: 3}
    - time: 0.23333333
      value: {fileID: 21300000, guid: 80074dd0f9b2fdc409527801bf757d8d, type: 3}
    attribute: m_Sprite
    path: 
    classID: 212
    script: {fileID: 0}
  m_SampleRate: 60
  m_WrapMode: 0
  m_Bounds:
    m_Center: {x: 0, y: 0, z: 0}
    m_Extent: {x: 0, y: 0, z: 0}
  m_ClipBindingConstant:
    genericBindings:
    - serializedVersion: 2
      path: 0
      attribute: 0
      script: {fileID: 0}
      typeID: 212
      customType: 23
      isPPtrCurve: 1
    pptrCurveMapping:
    - {fileID: 21300000, guid: 2360a996da61f564d94515d10de8e70f, type: 3}
    - {fileID: 21300000, guid: 155fe37a30d03214e945b27a08a20494, type: 3}
    - {fileID: 21300000, guid: 8bde64b7fdf7f884d9ae7714db9f2bd2, type: 3}
    - {fileID: 21300000, guid: a733d62e085c5c446b41196db230dfbd, type: 3}
    - {fileID: 21300000, guid: e493110eae9ba9f47bc1bdc003a0fd48, type: 3}
    - {fileID: 21300000, guid: 821287f2689d7254ca47ade21735d98b, type: 3}
    - {fileID: 21300000, guid: 863256cbac36f2249aaec276bc848802, type: 3}
    - {fileID: 21300000, guid: cdcc3309f220b3146b035fb90e3955be, type: 3}
    - {fileID: 21300000, guid: 534b12320ba7fca44bc2091aebcc3c32, type: 3}
    - {fileID: 21300000, guid: 39dc319a98e375847acb3a69b3d41e42, type: 3}
    - {fileID: 21300000, guid: 67d5cb7f2ee398645842eecad22ea024, type: 3}
    - {fileID: 21300000, guid: 29561f962a8ff2b448fd27098ee72240, type: 3}
    - {fileID: 21300000, guid: 585a82548a85f8846848811f84b5812c, type: 3}
    - {fileID: 21300000, guid: 1d715c516a6aea84aac0b05cd4b28cac, type: 3}
    - {fileID: 21300000, guid: 80074dd0f9b2fdc409527801bf757d8d, type: 3}
  m_AnimationClipSettings:
    serializedVersion: 2
    m_AdditiveReferencePoseClip: {fileID: 0}
    m_AdditiveReferencePoseTime: 0
    m_StartTime: 0
    m_StopTime: 0.25
    m_OrientationOffsetY: 0
    m_Level: 0
    m_CycleOffset: 0
    m_HasAdditiveReferencePose: 0
    m_LoopTime: 1
    m_LoopBlend: 0
    m_LoopBlendOrientation: 0
    m_LoopBlendPositionY: 0
    m_LoopBlendPositionXZ: 0
    m_KeepOriginalOrientation: 0
    m_KeepOriginalPositionY: 1
    m_KeepOriginalPositionXZ: 0
    m_HeightFromFeet: 0
    m_Mirror: 0
  m_EditorCurves: []
  m_EulerEditorCurves: []
  m_HasGenericRootTransform: 0
  m_HasMotionFloatCurves: 0
  m_GenerateMotionCurves: 0
  m_Events: []
